Lab 06 - Text Mining
…
Question 1: What specialties do we have?

We can use count() from dplyr to figure out how many different catagories do we have? Are these catagories related? overlapping? evenly distributed?

mt_samples %>%
  count(medical_specialty, sort = TRUE)

# A tibble: 40 × 2
   medical_specialty                 n
   <chr>                         <int>
 1 Surgery                        1103
 2 Consult - History and Phy.      516
 3 Cardiovascular / Pulmonary      372
 4 Orthopedic                      355
 5 Radiology                       273
 6 General Medicine                259
 7 Gastroenterology                230
 8 Neurology                       223
 9 SOAP / Chart / Progress Notes   166
10 Obstetrics / Gynecology         160
# ℹ 30 more rows
Question 2

Tokenize the the words in the transcription column

Count the number of times each token appears

Visualize the top 20 most frequent words

Explain what we see from this result. Does it makes sense? What insights (if any) do we get?

# Tokenize the words
tokenized <- mt_samples %>% unnest_tokens(word, transcription)
tokenized

# A tibble: 2,403,596 × 3
   description                                           medical_specialty word 
   <chr>                                                 <chr>             <chr>
 1 A 23-year-old white female presents with complaint o… Allergy / Immuno… subj…
 2 A 23-year-old white female presents with complaint o… Allergy / Immuno… this 
 3 A 23-year-old white female presents with complaint o… Allergy / Immuno… 23   
 4 A 23-year-old white female presents with complaint o… Allergy / Immuno… year 
 5 A 23-year-old white female presents with complaint o… Allergy / Immuno… old  
 6 A 23-year-old white female presents with complaint o… Allergy / Immuno… white
 7 A 23-year-old white female presents with complaint o… Allergy / Immuno… fema…
 8 A 23-year-old white female presents with complaint o… Allergy / Immuno… pres…
 9 A 23-year-old white female presents with complaint o… Allergy / Immuno… with 
10 A 23-year-old white female presents with complaint o… Allergy / Immuno… comp…
# ℹ 2,403,586 more rows

# Count the number of times each token appears
word_counts <- tokenized %>% count(word, sort = TRUE)
word_counts

# A tibble: 23,647 × 2
   word         n
   <chr>    <int>
 1 the     149888
 2 and      82779
 3 was      71765
 4 of       59205
 5 to       50632
 6 a        42810
 7 with     35815
 8 in       32807
 9 is       26378
10 patient  22065
# ℹ 23,637 more rows
…
top_5_words_by_specialty <- specialty_word_counts %>%
  group_by(medical_specialty) %>%
  top_n(5, count) %>%
  arrange(medical_specialty, desc(count))

top_1_word_by_specialty <- specialty_word_counts %>%
  group_by(medical_specialty) %>%
  top_n(1, count) %>%
  arrange(medical_specialty, desc(count))

top_5_words_by_specialty

# A tibble: 209 × 3
# Groups:   medical_specialty [40]
   medical_specialty    word      count
   <chr>                <chr>     <int>
 1 Allergy / Immunology history      38
 2 Allergy / Immunology noted        23
 3 Allergy / Immunology patient      22
 4 Allergy / Immunology allergies    21
 5 Allergy / Immunology nasal        13
 6 Allergy / Immunology past         13
 7 Autopsy              left         83
 8 Autopsy              1            66
 9 Autopsy              inch         59
10 Autopsy              neck         55
# ℹ 199 more rows

top_1_word_by_specialty

# A tibble: 41 × 3
# Groups:   medical_specialty [40]
   medical_specialty          word    count
   <chr>                      <chr>   <int>
 1 Allergy / Immunology       history    38
 2 Autopsy                    left       83
 3 Bariatrics                 patient    62
 4 Cardiovascular / Pulmonary left     1550
 5 Chiropractic               pain      187
 6 Consult - History and Phy. patient  3046
 7 Cosmetic / Plastic Surgery patient   116
 8 Dentistry                  patient   195
 9 Dermatology                1         102
10 Diets and Nutritions       patient    43
# ℹ 31 more rows
…
